sim.vcd
$date
	Thu Feb  9 00:38:40 2012
$end
$version
	Icarus Verilog
$end
$timescale
	1s
$end
$scope module top_tb $end
$var wire 32 ! dataadr [31:0] $end
$var wire 1 " memwrite $end
$var wire 32 # writedata [31:0] $end
$var reg 1 $ clk $end
$var reg 1 % reset $end
$scope module dut $end
$var wire 1 & clk $end
$var wire 32 ' dataadr [31:0] $end
$var wire 32 ( instr [31:0] $end
$var wire 1 " memwrite $end
$var wire 32 ) pc [31:0] $end
$var wire 32 * readdata [31:0] $end
$var wire 1 + reset $end
$var wire 32 , writedata [31:0] $end
$scope module mips $end
$var wire 3 - alucontrol [2:0] $end
$var wire 32 . aluout [31:0] $end
$var wire 1 / alusrc $end
$var wire 1 & clk $end
$var wire 32 0 instr [31:0] $end
$var wire 1 1 jump $end
$var wire 1 2 memtoreg $end
$var wire 1 " memwrite $end
$var wire 32 3 pc [31:0] $end
$var wire 1 4 pcsrc $end
$var wire 32 5 readdata [31:0] $end
$var wire 1 6 regdst $end
$var wire 1 7 regwrite $end
$var wire 1 + reset $end
$var wire 32 8 writedata [31:0] $end
$var wire 1 9 zero $end
$scope module c $end
$var wire 3 : alucontrol [2:0] $end
$var wire 2 ; aluop [1:0] $end
$var wire 1 / alusrc $end
$var wire 1 < branch $end
$var wire 6 = funct [5:0] $end
$var wire 1 1 jump $end
$var wire 1 2 memtoreg $end
$var wire 1 " memwrite $end
$var wire 6 > op [5:0] $end
$var wire 1 4 pcsrc $end
$var wire 1 6 regdst $end
$var wire 1 7 regwrite $end
$var wire 1 9 zero $end
$scope module md $end
$var wire 2 ? aluop [1:0] $end
$var wire 1 / alusrc $end
$var wire 1 < branch $end
$var wire 1 1 jump $end
$var wire 1 2 memtoreg $end
$var wire 1 " memwrite $end
$var wire 6 @ op [5:0] $end
$var wire 1 6 regdst $end
$var wire 1 7 regwrite $end
$var reg 9 A controls [8:0] $end
$upscope $end
$scope module ad $end
$var wire 2 B aluop [1:0] $end
$var wire 6 C funct [5:0] $end
$var reg 3 D alucontrol [2:0] $end
$upscope $end
$upscope $end
$scope module dp $end
$var wire 3 E alucontrol [2:0] $end
$var wire 32 F aluout [31:0] $end
$var wire 1 / alusrc $end
$var wire 1 & clk $end
$var wire 32 G instr [31:0] $end
$var wire 1 1 jump $end
$var wire 1 2 memtoreg $end
$var wire 32 H pc [31:0] $end
$var wire 32 I pcbranch [31:0] $end
$var wire 32 J pcnext [31:0] $end
$var wire 32 K pcnextbr [31:0] $end
$var wire 32 L pcplus1 [31:0] $end
$var wire 1 4 pcsrc $end
$var wire 32 M readdata [31:0] $end
$var wire 1 6 regdst $end
$var wire 1 7 regwrite $end
$var wire 1 + reset $end
$var wire 32 N result [31:0] $end
$var wire 32 O signimm [31:0] $end
$var wire 32 P srcA [31:0] $end
$var wire 32 Q srcB [31:0] $end
$var wire 32 R writedata [31:0] $end
$var wire 5 S writereg [4:0] $end
$var wire 1 9 zero $end
$scope module pcreg $end
$var wire 1 & clk $end
$var wire 32 T d [31:0] $end
$var wire 1 + reset $end
$var reg 32 U q [31:0] $end
$upscope $end
$scope module pcadd $end
$var wire 32 V a [31:0] $end
$var wire 32 W b [31:0] $end
$var wire 32 X sum [31:0] $end
$upscope $end
$scope module pcadd2 $end
$var wire 32 Y a [31:0] $end
$var wire 32 Z b [31:0] $end
$var wire 32 [ sum [31:0] $end
$upscope $end
$scope module pcbrmux $end
$var wire 32 \ out [31:0] $end
$var wire 32 ] q0 [31:0] $end
$var wire 32 ^ q1 [31:0] $end
$var wire 1 4 sel $end
$upscope $end
$scope module pcmux $end
$var wire 32 _ out [31:0] $end
$var wire 32 ` q0 [31:0] $end
$var wire 32 a q1 [31:0] $end
$var wire 1 1 sel $end
$upscope $end
$scope module rg $end
$var wire 5 b a1 [4:0] $end
$var wire 5 c a2 [4:0] $end
$var wire 5 d a3 [4:0] $end
$var wire 1 & clk $end
$var wire 32 e rd1 [31:0] $end
$var wire 32 f rd2 [31:0] $end
$var wire 32 g wr [31:0] $end
$var wire 1 7 wrenable $end
$upscope $end
$scope module wrmux $end
$var wire 5 h out [4:0] $end
$var wire 5 i q0 [4:0] $end
$var wire 5 j q1 [4:0] $end
$var wire 1 6 sel $end
$upscope $end
$scope module resmux $end
$var wire 32 k out [31:0] $end
$var wire 32 l q0 [31:0] $end
$var wire 32 m q1 [31:0] $end
$var wire 1 2 sel $end
$upscope $end
$scope module se $end
$var wire 16 n in [15:0] $end
$var wire 32 o out [31:0] $end
$upscope $end
$scope module srcbmux $end
$var wire 32 p out [31:0] $end
$var wire 32 q q0 [31:0] $end
$var wire 32 r q1 [31:0] $end
$var wire 1 / sel $end
$upscope $end
$scope module alu $end
$var wire 3 s aluControl [2:0] $end
$var wire 32 t srcA [31:0] $end
$var wire 32 u srcB [31:0] $end
$var reg 32 v ALUout [31:0] $end
$var reg 1 w zeroFlag $end
$upscope $end
$upscope $end
$upscope $end
$scope module imem $end
$var wire 6 x address [5:0] $end
$var wire 32 y out [31:0] $end
$upscope $end
$scope module dmem $end
$var wire 32 z address [31:0] $end
$var wire 1 & clk $end
$var wire 32 { rd [31:0] $end
$var wire 32 | wd [31:0] $end
$var wire 1 " we $end
$upscope $end
$upscope $end
$upscope $end
$enddefinitions $end
#0
$dumpvars
bx |
b0 {
b0 z
bx y
bx x
1w
b0 v
bx u
bx t
bx s
bx r
bx q
bx p
bx o
bx n
b0 m
b0 l
b0 k
bx j
bx i
bx h
b0 g
bx f
bx e
bx d
bx c
bx b
bx a
bx `
bx _
bx ^
bx ]
bx \
bx [
bx Z
bx Y
bx X
bx W
b1 V
bx U
bx T
bx S
bx R
bx Q
bx P
bx O
b0 N
b0 M
bx L
bx K
bx J
bx I
bx H
bx G
b0 F
bx E
bx D
bx C
bx B
bx A
bx @
bx ?
bx >
bx =
x<
bx ;
bx :
19
bx 8
x7
x6
b0 5
x4
bx 3
x2
x1
bx 0
x/
b0 .
bx -
bx ,
1+
b0 *
bx )
bx (
b0 '
0&
1%
0$
bx #
x"
b0 !
$end
#5
b101 N
b101 g
b101 k
0w
09
b101 v
bx *
bx 5
bx M
bx m
bx {
b101 !
b101 '
b101 .
b101 F
b101 l
b101 z
b10 D
b10 -
b10 :
b10 E
b10 s
b101 Q
b101 p
b101 u
04
17
06
1/
0<
0"
02
01
b0 ;
b0 ?
b0 B
b101000000 A
b1 J
b1 T
b1 _
b1 K
b1 \
b1 `
b110 I
b110 [
b110 ^
b10 S
b10 d
b10 h
b101 n
b101 O
b101 Y
b101 o
b101 r
b10 i
b0 j
b10 c
b0 b
b0 P
b0 e
b0 t
b101 =
b101 C
b1000 >
b1000 @
b100000000000000101 a
b0 x
b100000000000100000000000000101 (
b100000000000100000000000000101 0
b100000000000100000000000000101 G
b100000000000100000000000000101 y
b0 U
b1 L
b1 X
b1 Z
b1 ]
b0 )
b0 3
b0 H
b0 W
1$
1&
#10
0$
0&
#15
b101 #
b101 ,
b101 8
b101 R
b101 f
b101 q
b101 |
1$
1&
#20
0$
0&
0%
0+
#25
b1100 N
b1100 g
b1100 k
b1100 v
b1100 !
b1100 '
b1100 .
b1100 F
b1100 l
b1100 z
b1100 Q
b1100 p
b1100 u
b11 S
b11 d
b11 h
b10 J
b10 T
b10 _
b1100 n
b1100 O
b1100 Y
b1100 o
b1100 r
b11 i
b11 c
bx #
bx ,
bx 8
bx R
bx f
bx q
bx |
b110000000000001100 a
b1100 =
b1100 C
b10 K
b10 \
b10 `
b1 x
b100000000000110000000000001100 (
b100000000000110000000000001100 0
b100000000000110000000000001100 G
b100000000000110000000000001100 y
b1 U
b1110 I
b1110 [
b1110 ^
b10 L
b10 X
b10 Z
b10 ]
b1 )
b1 3
b1 H
b1 W
1$
1&
#30
0$
0&
#35
b11 N
b11 g
b11 k
b11111111111111111111111111110111 Q
b11111111111111111111111111110111 p
b11111111111111111111111111110111 u
b111 S
b111 d
b111 h
b11 v
b11 !
b11 '
b11 .
b11 F
b11 l
b11 z
b11 J
b11 T
b11 _
b1111111111110111 n
b11111111111111111111111111110111 O
b11111111111111111111111111110111 Y
b11111111111111111111111111110111 o
b11111111111111111111111111110111 r
b111 i
b11111 j
b111 c
b11 b
b1100 P
b1100 e
b1100 t
b11001111111111111110111 a
b110111 =
b110111 C
b11 K
b11 \
b11 `
b10 x
b100000011001111111111111110111 (
b100000011001111111111111110111 0
b100000011001111111111111110111 G
b100000011001111111111111110111 y
bx #
bx ,
bx 8
bx R
bx f
bx q
bx |
b10 U
b11111111111111111111111111111010 I
b11111111111111111111111111111010 [
b11111111111111111111111111111010 ^
b11 L
b11 X
b11 Z
b11 ]
b10 )
b10 3
b10 H
b10 W
1$
1&
#40
0$
0&
#45
b1 D
b1 -
b1 :
b1 E
b1 s
16
0/
b10 ;
b10 ?
b10 B
b110000010 A
b111 N
b111 g
b111 k
b101 Q
b101 p
b101 u
b100 S
b100 d
b100 h
b111 v
b111 !
b111 '
b111 .
b111 F
b111 l
b111 z
b100 J
b100 T
b100 _
b10000000100101 n
b10000000100101 O
b10000000100101 Y
b10000000100101 o
b10000000100101 r
b10 i
b100 j
b10 c
b111 b
b11 P
b11 e
b11 t
b111000100010000000100101 a
b100101 =
b100101 C
b0 >
b0 @
b100 K
b100 \
b100 `
b11 x
b111000100010000000100101 (
b111000100010000000100101 0
b111000100010000000100101 G
b111000100010000000100101 y
b11 U
b10000000101001 I
b10000000101001 [
b10000000101001 ^
b100 L
b100 X
b100 Z
b100 ]
b11 )
b11 3
b11 H
b11 W
b101 #
b101 ,
b101 8
b101 R
b101 f
b101 q
b101 |
1$
1&
#50
0$
0&
#55
b0 D
b0 -
b0 :
b0 E
b0 s
b100 N
b100 g
b100 k
b101 S
b101 d
b101 h
b111 Q
b111 p
b111 u
b100 v
b100 !
b100 '
b100 .
b100 F
b100 l
b100 z
b101 J
b101 T
b101 _
b10100000100100 n
b10100000100100 O
b10100000100100 Y
b10100000100100 o
b10100000100100 r
b100 i
b101 j
b100 c
b111 #
b111 ,
b111 8
b111 R
b111 f
b111 q
b111 |
b11 b
b1100 P
b1100 e
b1100 t
b11001000010100000100100 a
b100100 =
b100100 C
b101 K
b101 \
b101 `
b100 x
b11001000010100000100100 (
b11001000010100000100100 0
b11001000010100000100100 G
b11001000010100000100100 y
b100 U
b10100000101001 I
b10100000101001 [
b10100000101001 ^
b101 L
b101 X
b101 Z
b101 ]
b100 )
b100 3
b100 H
b100 W
1$
1&
#60
0$
0&
#65
b1011 N
b1011 g
b1011 k
b1011 v
b1011 !
b1011 '
b1011 .
b1011 F
b1011 l
b1011 z
b10 D
b10 -
b10 :
b10 E
b10 s
b110 J
b110 T
b110 _
b10100000100000 n
b10100000100000 O
b10100000100000 Y
b10100000100000 o
b10100000100000 r
b101 b
b100 P
b100 e
b100 t
b101001000010100000100000 a
b100000 =
b100000 C
b110 K
b110 \
b110 `
b101 x
b101001000010100000100000 (
b101001000010100000100000 0
b101001000010100000100000 G
b101001000010100000100000 y
b101 U
b10100000100110 I
b10100000100110 [
b10100000100110 ^
b110 L
b110 X
b110 Z
b110 ]
b101 )
b101 3
b101 H
b101 W
1$
1&
#70
0$
0&
#75
04
0w
09
bx *
bx 5
bx M
bx m
bx {
07
06
1<
b1 ;
b1 ?
b1 B
b110 D
b110 -
b110 :
b110 E
b110 s
b100001 A
b111 S
b111 d
b111 h
b11 Q
b11 p
b11 u
b1000 N
b1000 g
b1000 k
b111 J
b111 T
b111 _
b1010 n
b1010 O
b1010 Y
b1010 o
b1010 r
b111 i
b0 j
b111 c
b11 #
b11 ,
b11 8
b11 R
b11 f
b11 q
b11 |
b101001110000000000001010 a
b1010 =
b1010 C
b100 >
b100 @
b1000 v
b1000 !
b1000 '
b1000 .
b1000 F
b1000 l
b1000 z
b111 K
b111 \
b111 `
b110 x
b10000101001110000000000001010 (
b10000101001110000000000001010 0
b10000101001110000000000001010 G
b10000101001110000000000001010 y
b1011 P
b1011 e
b1011 t
b110 U
b10001 I
b10001 [
b10001 ^
b111 L
b111 X
b111 Z
b111 ]
b110 )
b110 3
b110 H
b110 W
1$
1&
#80
0$
0&
#85
1w
19
b0 *
b0 5
b0 M
b0 m
b0 {
b111 D
b111 -
b111 :
b111 E
b111 s
17
16
0<
b10 ;
b10 ?
b10 B
b110000010 A
b0 N
b0 g
b0 k
b100 S
b100 d
b100 h
b111 Q
b111 p
b111 u
b0 v
b0 !
b0 '
b0 .
b0 F
b0 l
b0 z
b1000 J
b1000 T
b1000 _
b10000000101010 n
b10000000101010 O
b10000000101010 Y
b10000000101010 o
b10000000101010 r
b100 i
b100 j
b100 c
b111 #
b111 ,
b111 8
b111 R
b111 f
b111 q
b111 |
b11 b
b1100 P
b1100 e
b1100 t
b11001000010000000101010 a
b101010 =
b101010 C
b0 >
b0 @
b1000 K
b1000 \
b1000 `
b111 x
b11001000010000000101010 (
b11001000010000000101010 0
b11001000010000000101010 G
b11001000010000000101010 y
b111 U
b10000000110010 I
b10000000110010 [
b10000000110010 ^
b1000 L
b1000 X
b1000 Z
b1000 ]
b111 )
b111 3
b111 H
b111 W
1$
1&
#90
0$
0&
#95
14
07
06
1<
b1 ;
b1 ?
b1 B
b110 D
b110 -
b110 :
b110 E
b110 s
b100001 A
b0 S
b0 d
b0 h
b1010 J
b1010 T
b1010 _
b1 n
b1 O
b1 Y
b1 o
b1 r
b0 i
b0 j
b0 c
b100 b
b0 P
b0 e
b0 t
b100000000000000000000001 a
b1 =
b1 C
b100 >
b100 @
b0 Q
b0 p
b0 u
b1010 K
b1010 \
b1010 `
b1000 x
b10000100000000000000000000001 (
b10000100000000000000000000001 0
b10000100000000000000000000001 G
b10000100000000000000000000001 y
b0 #
b0 ,
b0 8
b0 R
b0 f
b0 q
b0 |
b1000 U
b1010 I
b1010 [
b1010 ^
b1001 L
b1001 X
b1001 Z
b1001 ]
b1000 )
b1000 3
b1000 H
b1000 W
1$
1&
#100
0$
0&
#105
b111 D
b111 -
b111 :
b111 E
b111 s
17
16
0<
b10 ;
b10 ?
b10 B
b110000010 A
04
b1 N
b1 g
b1 k
b100 S
b100 d
b100 h
b101 Q
b101 p
b101 u
0w
09
b1 v
bx *
bx 5
bx M
bx m
bx {
b1 !
b1 '
b1 .
b1 F
b1 l
b1 z
b1011 J
b1011 T
b1011 _
b10000000101010 n
b10000000101010 O
b10000000101010 Y
b10000000101010 o
b10000000101010 r
b10 i
b100 j
b10 c
b101 #
b101 ,
b101 8
b101 R
b101 f
b101 q
b101 |
b111 b
b11 P
b11 e
b11 t
b111000100010000000101010 a
b101010 =
b101010 C
b0 >
b0 @
b1011 K
b1011 \
b1011 `
b1010 x
b111000100010000000101010 (
b111000100010000000101010 0
b111000100010000000101010 G
b111000100010000000101010 y
b1010 U
b10000000110101 I
b10000000110101 [
b10000000110101 ^
b1011 L
b1011 X
b1011 Z
b1011 ]
b1010 )
b1010 3
b1010 H
b1010 W
1$
1&
#110
0$
0&
#115
b1100 N
b1100 g
b1100 k
b1100 v
b1100 !
b1100 '
b1100 .
b1100 F
b1100 l
b1100 z
b10 D
b10 -
b10 :
b10 E
b10 s
b111 S
b111 d
b111 h
b1011 Q
b1011 p
b1011 u
b1100 J
b1100 T
b1100 _
b11100000100000 n
b11100000100000 O
b11100000100000 Y
b11100000100000 o
b11100000100000 r
b101 i
b111 j
b101 c
b1011 #
b1011 ,
b1011 8
b1011 R
b1011 f
b1011 q
b1011 |
b100 b
b1 P
b1 e
b1 t
b100001010011100000100000 a
b100000 =
b100000 C
b1100 K
b1100 \
b1100 `
b1011 x
b100001010011100000100000 (
b100001010011100000100000 0
b100001010011100000100000 G
b100001010011100000100000 y
b1011 U
b11100000101100 I
b11100000101100 [
b11100000101100 ^
b1100 L
b1100 X
b1100 Z
b1100 ]
b1011 )
b1011 3
b1011 H
b1011 W
1$
1&
#120
0$
0&
#125
b110 D
b110 -
b110 :
b110 E
b110 s
b111 N
b111 g
b111 k
b101 Q
b101 p
b101 u
b111 v
b111 !
b111 '
b111 .
b111 F
b111 l
b111 z
b1101 J
b1101 T
b1101 _
b11100000100010 n
b11100000100010 O
b11100000100010 Y
b11100000100010 o
b11100000100010 r
b10 i
b10 c
b101 #
b101 ,
b101 8
b101 R
b101 f
b101 q
b101 |
b111 b
b1100 P
b1100 e
b1100 t
b111000100011100000100010 a
b100010 =
b100010 C
b1101 K
b1101 \
b1101 `
b1100 x
b111000100011100000100010 (
b111000100011100000100010 0
b111000100011100000100010 G
b111000100011100000100010 y
b1100 U
b11100000101111 I
b11100000101111 [
b11100000101111 ^
b1101 L
b1101 X
b1101 Z
b1101 ]
b1100 )
b1100 3
b1100 H
b1100 W
1$
1&
#130
0$
0&
#135
0w
09
bx *
bx 5
bx M
bx m
bx {
07
06
1/
1"
b0 ;
b0 ?
b0 B
b10 D
b10 -
b10 :
b10 E
b10 s
b1010000 A
b111 S
b111 d
b111 h
b1000100 Q
b1000100 p
b1000100 u
b1010000 N
b1010000 g
b1010000 k
b1110 J
b1110 T
b1110 _
b1000100 n
b1000100 O
b1000100 Y
b1000100 o
b1000100 r
b111 i
b0 j
b111 c
b111 #
b111 ,
b111 8
b111 R
b111 f
b111 q
b111 |
b11 b
b11001110000000001000100 a
b100 =
b100 C
b101011 >
b101011 @
b1010000 v
b1010000 !
b1010000 '
b1010000 .
b1010000 F
b1010000 l
b1010000 z
b1110 K
b1110 \
b1110 `
b1101 x
b10101100011001110000000001000100 (
b10101100011001110000000001000100 0
b10101100011001110000000001000100 G
b10101100011001110000000001000100 y
b1100 P
b1100 e
b1100 t
b1101 U
b1010010 I
b1010010 [
b1010010 ^
b1110 L
b1110 X
b1110 Z
b1110 ]
b1101 )
b1101 3
b1101 H
b1101 W
1$
1&
#140
0$
0&
#145
17
0"
12
b101001000 A
bx N
bx g
bx k
b1010000 Q
b1010000 p
b1010000 u
b10 S
b10 d
b10 h
b1010000 v
b1010000 !
b1010000 '
b1010000 .
b1010000 F
b1010000 l
b1010000 z
b1111 J
b1111 T
b1111 _
b1010000 n
b1010000 O
b1010000 Y
b1010000 o
b1010000 r
b10 i
b10 c
b101 #
b101 ,
b101 8
b101 R
b101 f
b101 q
b101 |
b0 b
b0 P
b0 e
b0 t
b100000000001010000 a
b10000 =
b10000 C
b100011 >
b100011 @
b1111 K
b1111 \
b1111 `
b1110 x
b10001100000000100000000001010000 (
b10001100000000100000000001010000 0
b10001100000000100000000001010000 G
b10001100000000100000000001010000 y
b1110 U
b1011111 I
b1011111 [
b1011111 ^
b1111 L
b1111 X
b1111 Z
b1111 ]
b1110 )
b1110 3
b1110 H
b1110 W
1$
1&
#150
0$
0&
#155
1w
19
b0 *
b0 5
b0 M
b0 m
b0 {
b0 N
b0 g
b0 k
07
0/
02
11
b100 A
b0 v
b0 !
b0 '
b0 .
b0 F
b0 l
b0 z
b0 Q
b0 p
b0 u
b0 S
b0 d
b0 h
b10001 J
b10001 T
b10001 _
b10001 n
b10001 O
b10001 Y
b10001 o
b10001 r
b0 i
b0 c
b10001 a
b10001 =
b10001 C
b10 >
b10 @
b10000 K
b10000 \
b10000 `
b1111 x
b1000000000000000000000010001 (
b1000000000000000000000010001 0
b1000000000000000000000010001 G
b1000000000000000000000010001 y
b0 #
b0 ,
b0 8
b0 R
b0 f
b0 q
b0 |
b1111 U
b100001 I
b100001 [
b100001 ^
b10000 L
b10000 X
b10000 Z
b10000 ]
b1111 )
b1111 3
b1111 H
b1111 W
1$
1&
#160
0$
0&
#165
1/
1"
01
b1010000 A
b1010100 N
b1010100 g
b1010100 k
0w
09
b1010100 v
bx *
bx 5
bx M
bx m
bx {
b1010100 !
b1010100 '
b1010100 .
b1010100 F
b1010100 l
b1010100 z
b10 S
b10 d
b10 h
b1010100 Q
b1010100 p
b1010100 u
b10010 J
b10010 T
b10010 _
b1010100 n
b1010100 O
b1010100 Y
b1010100 o
b1010100 r
b10 i
b10 c
bx #
bx ,
bx 8
bx R
bx f
bx q
bx |
b100000000001010100 a
b10100 =
b10100 C
b101011 >
b101011 @
b10010 K
b10010 \
b10010 `
b10001 x
b10101100000000100000000001010100 (
b10101100000000100000000001010100 0
b10101100000000100000000001010100 G
b10101100000000100000000001010100 y
b10001 U
b1100110 I
b1100110 [
b1100110 ^
b10010 L
b10010 X
b10010 Z
b10010 ]
b10001 )
b10001 3
b10001 H
b10001 W
1$
1&
#170
0$
0&
#175
x4
1w
19
b0 *
b0 5
b0 M
b0 m
b0 {
bx D
bx -
bx :
bx E
bx s
x7
x6
x/
x<
x"
x2
x1
bx ;
bx ?
bx B
bx A
b0 N
b0 g
b0 k
bx Q
bx p
bx u
bx S
bx d
bx h
b0 v
b0 !
b0 '
b0 .
b0 F
b0 l
b0 z
bx J
bx T
bx _
bx n
bx O
bx Y
bx o
bx r
bx i
bx j
bx c
bx b
bx P
bx e
bx t
b0xxxxxxxxxxxxxxxxxxxxxxxxxx a
bx =
bx C
bx >
bx @
bx K
bx \
bx `
b10010 x
bx (
bx 0
bx G
bx y
b10010 U
bx I
bx [
bx ^
b10011 L
b10011 X
b10011 Z
b10011 ]
b10010 )
b10010 3
b10010 H
b10010 W
1$
1&
#180
0$
0&
#185
bx a
bx x
bx U
bx L
bx X
bx Z
bx ]
bx )
bx 3
bx H
bx W
1$
1&
